%YAML 1.1
%TAG !u! tag:unity3d.com,2011:
--- !u!114 &11400000
MonoBehaviour:
  m_ObjectHideFlags: 0
  m_CorrespondingSourceObject: {fileID: 0}
  m_PrefabInstance: {fileID: 0}
  m_PrefabAsset: {fileID: 0}
  m_GameObject: {fileID: 0}
  m_Enabled: 1
  m_EditorHideFlags: 0
  m_Script: {fileID: 11500000, guid: 2197733eaf074e7580ab63f06fca07e9, type: 3}
  m_Name: UISettings
  m_EditorClassIdentifier: 
  playerHealthBar: {r: 0, g: 0.8862746, b: 1, a: 1}
  enemyHealthBar: {r: 1, g: 0.06314821, b: 0, a: 1}
